{
    "status": "SUCCESS",
    "message": "Data Aktivitas berhasil dimuat!",
    "data": {
        "total": 50,
        "perPage": 10,
        "page": 1,
        "lastPage": 5,
        "data": [
            {
                "id": 1,
                "name": "Ekves abjebez ukialimuj te hubifi evhiah vofnohas ijgopkoz ramwabof lu ib pe sidrewub ligag sizvivu mug.",
                "slug": "ekves-abjebez-ukialimuj-te-hubifi-evhiah-vofnohas-ijgopkoz-ramwabof-lu-ib-pe-sidrewub-ligag-sizvivu-mug.",
                "description": null,
                "begin_date": "2032-04-02",
                "end_date": "2033-02-06",
                "register_begin_date": "2089-04-07",
                "register_end_date": "2066-02-04",
                "status": "OPENED",
                "minimum_roles_id": 0,
                "category_id": 1,
                "created_at": "2021-04-24 16:56:47",
                "banner_image": null,
                "form_data": null,
                "is_published": 1,
                "activityCategory": {
                    "id": 1,
                    "name": "Noiga"
                }
            },
            {
                "id": 2,
                "name": "Bazo rag sohirbut vodbaaw tes hatatoga ig fivwu veb cickur hi silimud mor bijeogi.",
                "slug": "bazo-rag-sohirbut-vodbaaw-tes-hatatoga-ig-fivwu-veb-cickur-hi-silimud-mor-bijeogi.",
                "description": null,
                "begin_date": "2034-02-24",
                "end_date": "2120-11-21",
                "register_begin_date": "2047-01-02",
                "register_end_date": "2063-06-06",
                "status": "OPENED",
                "minimum_roles_id": 0,
                "category_id": 9,
                "created_at": "2021-04-24 16:56:47",
                "banner_image": null,
                "form_data": null,
                "is_published": 1,
                "activityCategory": {
                    "id": 9,
                    "name": "Hojoo"
                }
            },
            {
                "id": 3,
                "name": "Ku fi ka pazigu jac gijgom vogikje ufe tezow nu vovibhut nebpe zi pinepu waewon dej ho.",
                "slug": "ku-fi-ka-pazigu-jac-gijgom-vogikje-ufe-tezow-nu-vovibhut-nebpe-zi-pinepu-waewon-dej-ho.",
                "description": null,
                "begin_date": "2030-11-23",
                "end_date": "2092-01-21",
                "register_begin_date": "2021-04-13",
                "register_end_date": "2048-10-18",
                "status": "OPENED",
                "minimum_roles_id": 0,
                "category_id": 6,
                "created_at": "2021-04-24 16:56:47",
                "banner_image": null,
                "form_data": null,
                "is_published": 1,
                "activityCategory": {
                    "id": 6,
                    "name": "Hecob"
                }
            },
            {
                "id": 4,
                "name": "Erude secmev ruczegim po gu niowra atovonde elhazigu bunaf huw jizgewuj rujto dabzul dovsejuf.",
                "slug": "erude-secmev-ruczegim-po-gu-niowra-atovonde-elhazigu-bunaf-huw-jizgewuj-rujto-dabzul-dovsejuf.",
                "description": null,
                "begin_date": "2069-01-17",
                "end_date": "2052-09-11",
                "register_begin_date": "2087-07-22",
                "register_end_date": "2104-02-23",
                "status": "OPENED",
                "minimum_roles_id": 0,
                "category_id": 1,
                "created_at": "2021-04-24 16:56:47",
                "banner_image": null,
                "form_data": null,
                "is_published": 1,
                "activityCategory": {
                    "id": 1,
                    "name": "Noiga"
                }
            },
            {
                "id": 5,
                "name": "Jommuraf dowhezin mef raj ezegu ge wit cenu at wabmac fusse ponaka ogofot.",
                "slug": "jommuraf-dowhezin-mef-raj-ezegu-ge-wit-cenu-at-wabmac-fusse-ponaka-ogofot.",
                "description": null,
                "begin_date": "2105-01-02",
                "end_date": "2051-03-31",
                "register_begin_date": "2068-04-23",
                "register_end_date": "2112-05-14",
                "status": "OPENED",
                "minimum_roles_id": 0,
                "category_id": 2,
                "created_at": "2021-04-24 16:56:47",
                "banner_image": null,
                "form_data": null,
                "is_published": 1,
                "activityCategory": {
                    "id": 2,
                    "name": "Majli"
                }
            },
            {
                "id": 6,
                "name": "Val bo buv zemeda najudoku opi rofveg kum lijophu tuefwo isu wuzu.",
                "slug": "val-bo-buv-zemeda-najudoku-opi-rofveg-kum-lijophu-tuefwo-isu-wuzu.",
                "description": null,
                "begin_date": "2030-11-25",
                "end_date": "2085-05-13",
                "register_begin_date": "2060-02-23",
                "register_end_date": "2092-08-20",
                "status": "OPENED",
                "minimum_roles_id": 0,
                "category_id": 1,
                "created_at": "2021-04-24 16:56:47",
                "banner_image": null,
                "form_data": null,
                "is_published": 1,
                "activityCategory": {
                    "id": 1,
                    "name": "Noiga"
                }
            },
            {
                "id": 7,
                "name": "Hojugor fa naep hafujho er zuvdep efvel wicruz ijuhuhloz bivuaz zaemsaj fitetivi soab kognap.",
                "slug": "hojugor-fa-naep-hafujho-er-zuvdep-efvel-wicruz-ijuhuhloz-bivuaz-zaemsaj-fitetivi-soab-kognap.",
                "description": null,
                "begin_date": "2040-01-31",
                "end_date": "2095-01-23",
                "register_begin_date": "2053-12-26",
                "register_end_date": "2119-04-15",
                "status": "OPENED",
                "minimum_roles_id": 0,
                "category_id": 10,
                "created_at": "2021-04-24 16:56:47",
                "banner_image": null,
                "form_data": null,
                "is_published": 1,
                "activityCategory": {
                    "id": 10,
                    "name": "Gigaf"
                }
            },
            {
                "id": 8,
                "name": "Hifju jemib luw witwocuf mimnifva vizisuv neej wujcet hoc gub fibbi viadcoz ami ona.",
                "slug": "hifju-jemib-luw-witwocuf-mimnifva-vizisuv-neej-wujcet-hoc-gub-fibbi-viadcoz-ami-ona.",
                "description": null,
                "begin_date": "2117-10-22",
                "end_date": "2069-05-29",
                "register_begin_date": "2082-06-14",
                "register_end_date": "2040-10-09",
                "status": "OPENED",
                "minimum_roles_id": 0,
                "category_id": 4,
                "created_at": "2021-04-24 16:56:47",
                "banner_image": null,
                "form_data": null,
                "is_published": 1,
                "activityCategory": {
                    "id": 4,
                    "name": "Bomaf"
                }
            },
            {
                "id": 9,
                "name": "Umikofuc supemu meuwfil taselu mudav wafu ucepaj ru woz hewfe nacowosu ajazazev gil fum ke.",
                "slug": "umikofuc-supemu-meuwfil-taselu-mudav-wafu-ucepaj-ru-woz-hewfe-nacowosu-ajazazev-gil-fum-ke.",
                "description": null,
                "begin_date": "2080-10-23",
                "end_date": "2065-10-02",
                "register_begin_date": "2100-03-02",
                "register_end_date": "2054-03-01",
                "status": "OPENED",
                "minimum_roles_id": 0,
                "category_id": 3,
                "created_at": "2021-04-24 16:56:47",
                "banner_image": null,
                "form_data": null,
                "is_published": 1,
                "activityCategory": {
                    "id": 3,
                    "name": "Iwgip"
                }
            },
            {
                "id": 10,
                "name": "Pahufiz epowuzci sijupa pul wi jamoaf am uc dit is zep bogedar zovina ofiode melalkob abo howida.",
                "slug": "pahufiz-epowuzci-sijupa-pul-wi-jamoaf-am-uc-dit-is-zep-bogedar-zovina-ofiode-melalkob-abo-howida.",
                "description": null,
                "begin_date": "2024-03-30",
                "end_date": "2073-11-16",
                "register_begin_date": "2068-08-29",
                "register_end_date": "2120-09-29",
                "status": "OPENED",
                "minimum_roles_id": 0,
                "category_id": 4,
                "created_at": "2021-04-24 16:56:47",
                "banner_image": null,
                "form_data": null,
                "is_published": 1,
                "activityCategory": {
                    "id": 4,
                    "name": "Bomaf"
                }
            }
        ]
    }
}